<?xml version="1.0" encoding="UTF-8" standalone="no"?>
<svg
   xmlns:dc="http://purl.org/dc/elements/1.1/"
   xmlns:cc="http://creativecommons.org/ns#"
   xmlns:rdf="http://www.w3.org/1999/02/22-rdf-syntax-ns#"
   xmlns:svg="http://www.w3.org/2000/svg"
   xmlns="http://www.w3.org/2000/svg"
   xmlns:sodipodi="http://sodipodi.sourceforge.net/DTD/sodipodi-0.dtd"
   xmlns:inkscape="http://www.inkscape.org/namespaces/inkscape"
   width="16"
   height="16"
   viewBox="0 0 4.2333332 4.2333335"
   version="1.1"
   id="svg8"
   inkscape:version="1.0.1 (3bc2e813f5, 2020-09-07)"
   sodipodi:docname="Equipment.svg">
  <defs
     id="defs2" />
  <sodipodi:namedview
     id="base"
     pagecolor="#ffffff"
     bordercolor="#666666"
     borderopacity="1.0"
     inkscape:pageopacity="0.0"
     inkscape:pageshadow="2"
     inkscape:zoom="22.627417"
     inkscape:cx="1.1523982"
     inkscape:cy="7.5895568"
     inkscape:document-units="mm"
     inkscape:current-layer="layer1"
     inkscape:document-rotation="0"
     showgrid="true"
     units="px"
     inkscape:window-width="1888"
     inkscape:window-height="1012"
     inkscape:window-x="16"
     inkscape:window-y="52"
     inkscape:window-maximized="0">
    <inkscape:grid
       type="xygrid"
       id="grid833"
       empspacing="4" />
  </sodipodi:namedview>
  <metadata
     id="metadata5">
    <rdf:RDF>
      <cc:Work
         rdf:about="">
        <dc:format>image/svg+xml</dc:format>
        <dc:type
           rdf:resource="http://purl.org/dc/dcmitype/StillImage" />
        <dc:title></dc:title>
      </cc:Work>
    </rdf:RDF>
  </metadata>
  <g
     inkscape:label="Layer 1"
     inkscape:groupmode="layer"
     id="layer1">
    <path
       id="rect837"
       style="fill:#008080;stroke-width:0.264583"
       d="M 0.26458333,0.26458333 V 0 H 3.96875 v 0.26458333 h 0.2645833 l -2e-7,1.05833337 H 3.3333332e-8 L 0,0.26458333 Z"
       sodipodi:nodetypes="ccccccccc" />
    <path
       id="rect839"
       style="fill:#008080;stroke-width:0.438761"
       d="M 2.5585734e-7,1.5875 H 4.2333333 l 0,2.38125 H 3.96875 V 4.2333333 H 0.26458333 V 3.96875 H 0 Z"
       sodipodi:nodetypes="ccccccccc" />
    <path
       id="rect857"
       style="fill:#241c1c;stroke:none;stroke-width:0.264583"
       d="M 2.9104167,0.26458334 V 0.52916667 H 3.175 V 0.26458334 Z M 3.175,0.52916667 V 0.79375 H 3.4395833 V 0.52916667 Z m 0.2645833,0 H 3.7041667 V 0.26458334 H 3.4395833 Z m 0,0.26458333 V 1.0583333 H 3.7041667 V 0.79375 Z m -0.2645833,0 H 2.9104167 V 1.0583333 H 3.175 Z" />
    <rect
       style="fill:#055252;fill-opacity:1;stroke:none;stroke-width:0.212139"
       id="rect920"
       width="0.79374993"
       height="0.79374969"
       x="0.26458332"
       y="2.116667"
       ry="2.3841849e-08"
       rx="1.7029896e-09" />
    <rect
       style="fill:#055252;fill-opacity:1;stroke:none;stroke-width:0.212139"
       id="rect948"
       width="0.79374993"
       height="0.79374969"
       x="0.5291667"
       y="3.1750004"
       ry="2.3841849e-08"
       rx="1.7029896e-09" />
    <rect
       style="fill:#055252;fill-opacity:1;stroke:none;stroke-width:0.212139"
       id="rect950"
       width="0.79374993"
       height="0.79374969"
       x="3.175"
       y="2.116667"
       ry="2.3841849e-08"
       rx="1.7029896e-09" />
    <rect
       style="fill:#055252;fill-opacity:1;stroke:none;stroke-width:0.212139"
       id="rect952"
       width="0.79374993"
       height="0.79374969"
       x="2.9104166"
       y="3.1750002"
       ry="2.3841849e-08"
       rx="1.7029896e-09" />
    <rect
       style="fill:#055252;fill-opacity:1;stroke:none;stroke-width:0.244957"
       id="rect954"
       width="1.0583334"
       height="0.79374969"
       x="1.5875"
       y="3.175"
       ry="2.3841849e-08"
       rx="2.270653e-09" />
    <rect
       style="fill:#055252;fill-opacity:1;stroke:none;stroke-width:0.244957"
       id="rect956"
       width="1.0583334"
       height="0.79374969"
       x="1.5874999"
       y="1.8520838"
       ry="2.3841849e-08"
       rx="2.270653e-09" />
  </g>
</svg>
