<?xml version="1.0" encoding="UTF-8" standalone="no"?>
<svg
   xmlns:dc="http://purl.org/dc/elements/1.1/"
   xmlns:cc="http://creativecommons.org/ns#"
   xmlns:rdf="http://www.w3.org/1999/02/22-rdf-syntax-ns#"
   xmlns:svg="http://www.w3.org/2000/svg"
   xmlns="http://www.w3.org/2000/svg"
   xmlns:sodipodi="http://sodipodi.sourceforge.net/DTD/sodipodi-0.dtd"
   xmlns:inkscape="http://www.inkscape.org/namespaces/inkscape"
   width="16"
   height="16"
   viewBox="0 0 4.2333332 4.2333335"
   version="1.1"
   id="svg8"
   inkscape:version="1.0.1 (3bc2e813f5, 2020-09-07)"
   sodipodi:docname="Inventory.svg">
  <defs
     id="defs2" />
  <sodipodi:namedview
     id="base"
     pagecolor="#ffffff"
     bordercolor="#666666"
     borderopacity="1.0"
     inkscape:pageopacity="0.0"
     inkscape:pageshadow="2"
     inkscape:zoom="2.8284271"
     inkscape:cx="11.167888"
     inkscape:cy="-11.713419"
     inkscape:document-units="mm"
     inkscape:current-layer="layer1"
     inkscape:document-rotation="0"
     showgrid="true"
     units="px"
     inkscape:window-width="1888"
     inkscape:window-height="1012"
     inkscape:window-x="16"
     inkscape:window-y="52"
     inkscape:window-maximized="0">
    <inkscape:grid
       type="xygrid"
       id="grid833"
       empspacing="4" />
  </sodipodi:namedview>
  <metadata
     id="metadata5">
    <rdf:RDF>
      <cc:Work
         rdf:about="">
        <dc:format>image/svg+xml</dc:format>
        <dc:type
           rdf:resource="http://purl.org/dc/dcmitype/StillImage" />
        <dc:title></dc:title>
      </cc:Work>
    </rdf:RDF>
  </metadata>
  <g
     inkscape:label="Layer 1"
     inkscape:groupmode="layer"
     id="layer1">
    <path
       id="rect839"
       style="fill:#008080;stroke-width:2.09762"
       d="M 4 2 L 4 3 L 5 3 L 5 4 L 6 4 L 6 6.0664062 L 5 6 L 5.0566406 7 L 4 7 L 4 8 L 3 8 L 3 9 L 2 9 L 2 10 L 1 10 L 1.03125 11.982422 L 2.03125 12 L 2.03125 13 L 3.03125 13 L 3 14 L 5 14 L 5 15 L 8 15 L 11 15 L 11 14 L 13 14 L 12.96875 13 L 13.96875 13 L 13.96875 12 L 14.96875 11.982422 L 15 10 L 14 10 L 14 9 L 13 9 L 13 8 L 12 8 L 12 7 L 10.943359 7 L 11 6 L 10 6.0664062 L 10 4 L 11 4 L 11 3 L 12 3 L 12 2 L 8.9550781 2 L 9 3 L 8 2.9980469 L 7 3 L 7.0449219 2 L 4 2 z "
       transform="scale(0.26458333)" />
    <rect
       style="fill:#055252;fill-opacity:1;stroke:none;stroke-width:0.374176"
       id="rect1082"
       width="1.0583334"
       height="0.52916676"
       x="1.5875"
       y="1.0583333"
       rx="7.9472908e-09"
       ry="1.5894583e-08" />
  </g>
</svg>
