[gd_resource type="Resource" load_steps=3 format=2]

[ext_resource path="res://addons/inventory/resources/InventoryItem.gd" type="Script" id=1]
[ext_resource path="res://samples/inventory/assets/helmet.svg" type="Texture" id=2]

[resource]
script = ExtResource( 1 )
name = "Helmet"
type = "helmet"
texture = ExtResource( 2 )
slot_type = 1
